Simulation Study
…
## ..

# print site data
print(site_data)

## Simple feature collection with 30 features and 5 fields
## geometry type:  POINT
## dimension:      XY
## bbox:           xmin: 0.01366063 ymin: 0.01929364 xmax: 0.9272025 ymax: 0.9946761
## epsg (SRID):    NA
## proj4string:    NA
## # A tibble: 30 x 6
##    survey_cost management_cost          e1        e2    f1
##          <dbl>           <dbl>       <dbl>     <dbl> <dbl>
##  1     7.07047         69.9782  0.539321   -0.895568     1
##  2     5.43637         69.0084 -0.862086    0.135739    NA
##  3     7.02416         66.8320  0.557181   -0.974966     1
##  4     7.11699         68.7759 -0.00550767 -1.14857      1
##  5     6.13178         64.6530  0.590071   -0.841855    NA
##  6     4.31864         67.0997  1.44469     1.86069      0
##  7     5.46042         63.6544  0.786510   -0.619393     0
##  8     8.88090         69.5445 -0.794324   -1.09249      1
##  9     6.39256         72.6893 -1.00987    -0.651723     1
## 10     7.20251         72.0285 -1.14882    -0.707694     1
## # ... with 20 more rows, and 1 more variable: geometry <POINT>
…
