surveyvoi: Survey Value of Information
…
# simulate site data
site_data <- simulate_site_data(
  n_sites = 30, n_features = 1, proportion_of_sites_missing_data = 15 / 30,
  n_env_vars = 3, survey_cost_intensity = 5, management_cost_intensity = 2500,
  max_number_surveys_per_site = 1, output_probabilities = FALSE)

# print site data
print(site_data)

## Simple feature collection with 30 features and 7 fields
## Geometry type: POINT
## Dimension:     XY
## Bounding box:  xmin: 0.07758767 ymin: 0.03189323 xmax: 0.9762666 ymax: 0.9557619
## CRS:           NA
## # A tibble: 30 × 8
##    survey_cost management_cost    f1    n1        e1        e2         e3
##          <dbl>           <dbl> <dbl> <dbl>     <dbl>     <dbl>      <dbl>
##  1           9            2458     0     0  0.334113  0.502778 -1.00012  
##  2           1            2524     0     1 -1.32716  -1.19893   1.06494  
##  3           3            2483     0     0 -1.18385   0.676827  0.387451 
##  4          12            2513     0     0  0.691077 -0.926471 -0.244236 
##  5           4            2477     0     0  0.832864  2.70543  -0.351963 
##  6           8            2481     0     1 -0.870905 -0.635214 -0.779346 
##  7           1            2499     1     1  0.774926  1.31091  -0.0104341
##  8           6            2479     0     0  1.34695   0.220259  0.824172 
##  9           7            2484     0     1 -0.670210 -0.729128 -0.912692 
## 10          11            2519     0     0  0.125632  0.313454 -1.37448  
##                geometry
##                 <POINT>
##  1  (0.683582 0.841256)
##  2  (0.872904 0.240454)
##  3  (0.690117 0.679761)
##  4 (0.115936 0.0704436)
##  5  (0.195009 0.646561)
##  6  (0.461201 0.102122)
##  7  (0.203535 0.955762)
##  8  (0.590849 0.748232)
##  9  (0.373888 0.150227)
## 10  (0.141298 0.307626)
## # ℹ 20 more rows
…
# store the model sensitivities and specificities in the feature_data object
feature_data$model_sensitivity <- xgb_performance$test_sensitivity_mean
feature_data$model_specificity <- xgb_performance$test_specificity_mean

# store predicted probabilities in the site_data object
xgb_predictions <- xgb_results$predictions
print(xgb_predictions)

## # A tibble: 30 × 1
##          f1
##       <dbl>
##  1 0.565847
##  2 0.410422
##  3 0.410541
##  4 0.452530
##  5 0.565847
##  6 0.410422
##  7 0.565847
##  8 0.565847
##  9 0.452463
## 10 0.565847
## # ℹ 20 more rows
…
