surveyvoi: Survey Value of Information • surveyvoi
…
## ...

# print site data
print(site_data)

## Simple feature collection with 30 features and 7 fields
## geometry type:  POINT
## dimension:      XY
## bbox:           xmin: 0.1270337 ymin: 0.008288463 xmax: 0.987045 ymax: 0.9969118
## CRS:            NA
## # A tibble: 30 x 8
##    survey_cost management_cost    f1    n1         e1        e2        e3
##          <dbl>           <dbl> <dbl> <dbl>      <dbl>     <dbl>     <dbl>
##  1     2.76212         1729.81     1     1 -0.120662  -0.952959  1.72033 
##  2     3.49194         1713.38     0     0 -1.54589   -1.48326  -0.292258
##  3     5.34569         1715.35     0     1 -0.568181   1.20463   0.218325
##  4     3.46821         1741.26     0     0  0.574658   0.482337 -0.896162
##  5     2.56933         1726.25     0     0  0.0762019 -0.972519  0.282810
##  6     3.61397         1735.28     1     1 -2.27319   -1.41646  -1.11172 
##  7     3.44942         1741.17     1     1 -0.141574  -1.07482   0.941937
##  8     4.42756         1762.69     0     0  0.230319   1.42230  -0.524478
##  9     3.46739         1736.27     0     0  1.56396   -0.108771  0.173746
## 10     1.75203         1721.21     0     1  1.25681   -0.123240 -0.590079
##                 geometry
##                  <POINT>
##  1   (0.915251 0.608119)
##  2   (0.947728 0.197243)
##  3   (0.269343 0.128106)
##  4   (0.454803 0.334248)
##  5     (0.81507 0.44203)
##  6 (0.927857 0.00828846)
##  7   (0.882196 0.495865)
##  8   (0.127034 0.822017)
##  9     (0.67577 0.81784)
## 10   (0.611484 0.551849)
## # … with 20 more rows
…
# store the model sensitivities and specificities in the feature_data object
feature_data$model_sensitivity <- xgb_performance$test_sensitivity_mean
feature_data$model_specificity <- xgb_performance$test_specificity_mean

# store predicted probabilities values in the site_data object
xgb_predictions <- xgb_results$predictions
print(xgb_predictions)

## # A tibble: 30 x 1
##          f1
##       <dbl>
##  1 0.537460
##  2 0.537460
##  3 0.454860
##  4 0.454860
##  5 0.537460
##  6 0.537460
##  7 0.537460
##  8 0.454860
##  9 0.496156
## 10 0.496156
## # … with 20 more rows
…
