Approximately near optimal survey scheme — approx_near_optimal_survey_scheme • surveyvoi
…
# simulate data
site_data <- simulate_site_data(n_sites = 30, n_features = 2, prop = 0.1)
#> ...
feature_data <- simulate_feature_data(n_features = 2, prop = 1)
feature_data$target <- c(10, 10)

# preview simulated data
print(site_data)
#> Simple feature collection with 30 features and 11 fields
#> Geometry type: POINT
#> Dimension:     XY
#> Bounding box:  xmin: 0.04205953 ymin: 0.02461368 xmax: 0.9942698 ymax: 0.9630242
#> CRS:           NA
#> # A tibble: 30 × 12
#>    survey_cost management_cost    f1    f2    n1    n2     e1     e2     e3
#>          <dbl>           <dbl> <dbl> <dbl> <dbl> <dbl>  <dbl>  <dbl>  <dbl>
#>  1        6.93            65.6   0.2   0       5     5  1.13  -1.55   0.470
#>  2       10.8             71.3   0     0.2     5     5  0.648 -0.890 -0.187
#>  3       11.8             65.2   0     0       2     2  1.18  -1.08   1.12 
#>  4       11.7             67.2   0     0       2     2  0.226 -0.666 -0.474
#>  5        8.04            76.4   1     0       4     4 -1.75   1.71  -2.13 
#>  6        9.81            66.4   0     0       0     0  1.34  -1.14   0.533
#>  7       12.6             67.5   0     0       1     1  1.04  -1.01   0.810
#>  8       10.3             77.9   0.8   0.4     5     5 -1.25   1.06  -1.25 
#>  9       12.1             74.0   1     1       1     1 -0.259  0.441  0.590
#> 10        9.73            72.2   1     1       3     3 -0.387  0.631  0.690
#> # … with 20 more rows, and 3 more variables: p1 <dbl>, p2 <dbl>,
#> #   geometry <POINT>
…
