Approximate expected value of the decision given survey information — approx_evdsi • surveyvoi
…
# simulate data
site_data <- simulate_site_data(n_sites = 30, n_features = 2, prop = 0.1)
#> ...
feature_data <- simulate_feature_data(n_features = 2, prop = 1)
feature_data$target <- c(10, 10)

# preview simulated data
print(site_data)
#> Simple feature collection with 30 features and 11 fields
#> Geometry type: POINT
#> Dimension:     XY
#> Bounding box:  xmin: 0.04205953 ymin: 0.02461368 xmax: 0.9942698 ymax: 0.9630242
#> CRS:           NA
#> # A tibble: 30 x 12
#>    survey_cost management_cost    f1    f2    n1    n2      e1     e2     e3
#>          <dbl>           <dbl> <dbl> <dbl> <dbl> <dbl>   <dbl>  <dbl>  <dbl>
#>  1        7.60            65.0   0.8     1     5     5 -1.59   -0.335 -1.01 
#>  2        7.87            67.8   0       1     5     5 -1.63   -2.04  -1.92 
#>  3        7.14            64.5   1       1     2     2 -0.576   0.794 -0.516
#>  4        6.90            67.6   0       1     2     2 -1.30   -2.44  -1.41 
#>  5        5.03            68.6   1       1     4     4  0.485   0.686  1.46 
#>  6        5.24            72.4   0       0     3     3  1.39   -0.181 -0.329
#>  7        8.07            68.7   0       0     0     0 -1.06    0.193 -0.880
#>  8        3.43            69.8   0.4     1     5     5  0.0778 -0.443  1.27 
#>  9        3.62            65.0   1       1     1     1  0.270   0.835  0.497
#> 10        3.68            63.1   1       0     3     3  0.657   1.18   0.366
#> # … with 20 more rows, and 3 more variables: p1 <dbl>, p2 <dbl>,
#> #   geometry <POINT>
…
