Fit models to estimate probability of occupancy — fit_occupancy_models • surveyvoi
…
# simulate data for 200 sites, 2 features, and 3 environmental variables
 x <- simulate_site_data(200, 2, 0.5, n_env_vars = 3)
#> ...

# set parameters manually
xgb_params <- list(list(nrounds = 10, objective = "binary:logistic"),
                   list(nrounds = 5, objective = "binary:logistic"))

# fit models
m <- fit_occupancy_models(x, c("f1", "f2"), c("e1", "e2", "e3"),
                          xgb_params)

# preview models predictions
print(m$predictions)
#> # A tibble: 200 x 2
#>        f1    f2
#>     <dbl> <dbl>
#>  1 0.0405 0.878
#>  2 0.0626 0.878
#>  3 0.469  0.482
#>  4 0.0522 0.878
#>  5 0.293  0.482
#>  6 0.413  0.878
#>  7 0.957  0.123
#>  8 0.486  0.878
#>  9 0.269  0.878
#> 10 0.0405 0.878
#> # … with 190 more rows
…
