Fit hierarchical generalized linear models to predict occupancy — fit_hglm_occupancy_models • surveyvoi
…
# print model predictions
print(results$predictions)
#> # A tibble: 30 × 2
#>          f1           f2
#>       <dbl>        <dbl>
#>  1 5.88e- 2 0.948       
#>  2 1.00e+ 0 0.00000153  
#>  3 5.37e-10 1.00        
#>  4 1.00e+ 0 0.0000000615
#>  5 1.00e+ 0 0.0000633   
#>  6 3.23e- 3 0.998       
#>  7 6.25e- 3 0.881       
#>  8 9.97e- 1 0.0608      
#>  9 1.89e- 4 0.999       
#> 10 2.89e- 1 0.829       
#> # ℹ 20 more rows
…
