Fit boosted regression tree models to predict occupancy — fit_xgb_occupancy_models • surveyvoi
…
# print model predictions
print(results$predictions)
#> # A tibble: 30 × 2
#>       f1    f2
#>    <dbl> <dbl>
#>  1 0.450 0.635
#>  2 0.549 0.362
#>  3 0.450 0.629
#>  4 0.549 0.362
#>  5 0.539 0.363
#>  6 0.450 0.638
#>  7 0.450 0.373
#>  8 0.549 0.627
#>  9 0.450 0.630
#> 10 0.529 0.557
#> # ℹ 20 more rows
…
